@startuml

 class Wohnung{
 +Preis
 -Bild 1
 -Bild 2
  Adresse
  Anbieter
  Intressent
  VisitTimeList
    }

 class Bild{
 int bildId;
 String bildName;

 }
abstract class Person{
 String Name
 String Vorname
 Adresse

 }
 class Anbieter{
 Notizen
 VisitTimeList
 }
 class Mitarbeiter{
 visitTime()
 VisitTimeList
 }
 class Intressent{
 Notizen
 VisitTimeList
 suchAuftrag()
 }
 class Besichtigungstermin{
 date time;
 }
class Suchauftrag{

}

Suchauftrag"0..*"--"1" Intressent
Wohnung"1 "--"0..*" Bild
Wohnung"1 "--"0..*" Anbieter
Wohnung"1 "--"0..*" Intressent
Anbieter"1..* "--"0..*" Mitarbeiter
Anbieter --|> Person
Mitarbeiter --|> Person
Intressent --|> Person


@enduml