@startuml
(*)  --> "check Kind wach/wecken"
If "Kind angezogen" then
--> [Yes] "Essen"
else
--> [No] "Anzihen"
--> "Essen"
--> ==B1==
Endif
==B1== --> "Uhrzeit"
IF "Uhrzeit ok" then
--> [Yes] "in die Schule"
else
-->[No] "warten"
--> "in die Schule"
==B1== --> Znüni Bereit
IF "Znüni nicht bereit" then
--> [Yes] "in die Schule"
else
--> Znümni richten
--> "in die Schule"
==B1== --> "Schuhlkleier an"
IF Schuhlkleier an then
--> [Yes] "in die Schule"
else
-->[No] "Anziehn"
--> "in die Schule"
@enduml