@startuml
User -> PC: Anmeldung, öffnen des Clients
PC -> Server: Anfrage Benutzeroberfläche
Server --> PC: Konto muss angelegt werden
PC --> User: Daten anfrage
User --> PC: Konto daten angabe
PC -->Server: Daten des Users für Konto
Server --> Videothek: Uebergabe
Videothek -> Konto: Konto anlegen
Konto --> Videothek: bestätigung Konto anlegung erfolgreich
Videothek --> Server:Anlegung erfolgt
Server --> PC: Anmeldung nun mit konto möglich
PC --> User: Anmeldung bereit
User --> PC:Anmeldungs daten eingeben
PC --> Server: Anmeldung






@enduml